<?xml version="1.0" encoding="utf-8"?>
<!-- Generator: Adobe Illustrator 24.0.3, SVG Export Plug-In . SVG Version: 6.00 Build 0)  -->
<svg version="1.1" id="Layer_1" xmlns="http://www.w3.org/2000/svg" xmlns:xlink="http://www.w3.org/1999/xlink" x="0px" y="0px"
	 viewBox="0 0 96 96" style="enable-background:new 0 0 96 96;" xml:space="preserve">
<style type="text/css">
	.st0{fill:#03A9F4;}
	.st1{fill:#020F16;}
</style>
<path class="st0" d="M12,20c0-4.4,3.6-8,8-8h56c4.4,0,8,3.6,8,8v56c0,4.4-3.6,8-8,8H20c-4.4,0-8-3.6-8-8V20z"/>
<path class="st1" d="M40,38.3h-4v8.9H40c1.1,0,1.9-0.4,2.5-1.1s0.9-1.8,0.9-3.1c0-1.4-0.3-2.5-0.9-3.4S41.1,38.4,40,38.3z"/>
<path class="st1" d="M18,18v60h60V18H18z M46.7,49.6c-1.7,1.6-3.9,2.4-6.9,2.4H36v10h-5.7V33.6H40c2.8,0,5.1,0.9,6.7,2.6
	s2.5,4,2.5,6.8S48.4,48,46.7,49.6z M65.4,60.7c-1.4,1.1-3.3,1.7-5.6,1.7c-1.5,0-2.9-0.3-4.1-0.9S53.6,60,52.9,59s-1-2.2-1-3.5h5.3
	c0,1,0.2,1.7,0.7,2.2s1.1,0.7,2.1,0.7c1.5,0,2.2-0.7,2.2-2c0-0.5-0.2-0.9-0.7-1.3s-1.4-0.9-3-1.6c-2.3-0.9-3.8-1.9-4.7-2.9
	s-1.3-2.2-1.3-3.7c0-1.8,0.7-3.4,2-4.6s3.1-1.8,5.3-1.8c2.3,0,4.2,0.6,5.6,1.8c1.4,1.2,2.1,2.8,2.1,4.8h-5.5c0-1.7-0.7-2.6-2.1-2.6
	c-0.6,0-1.1,0.2-1.4,0.5s-0.6,0.9-0.6,1.5c0,0.5,0.2,0.9,0.6,1.2s1.4,0.9,3,1.5c2.3,0.8,3.8,1.8,4.8,2.8s1.4,2.3,1.4,4
	C67.5,58,66.8,59.5,65.4,60.7z"/>
</svg>
